[
  {
    "id": 1,
    "project_id": 3,
    "user_id": 1,
    "name": "Zadanie1",
    "priority": "normalny",
    "status": "zakonczone",
    "description": "Irure est culpa anim commodo magna pariatur sint eu elit adipisicing. Sit irure non ea aliquip veniam quis esse cillum officia laborum occaecat quis. Esse duis sint aliqua est aute occaecat elit cupidatat irure incididunt magna."
  },
  {
    "id": 2,
    "project_id": 4,
    "user_id": 5,
    "name": "Zadanie2",
    "priority": "niski",
    "status": "w trakcie",
    "description": "Non officia ipsum ut tempor culpa sunt incididunt. Nulla minim ad Lorem nostrud mollit sit incididunt cillum veniam nostrud. Commodo tempor ex labore mollit non nostrud consectetur ut incididunt. Ullamco eiusmod et fugiat est elit proident officia."
  },
  {
    "id": 3,
    "project_id": 1,
    "user_id": 3,
    "name": "Zadanie3",
    "priority": "normalny",
    "status": "w trakcie",
    "description": "Velit minim dolor incididunt veniam eiusmod qui pariatur in nisi consectetur. Cupidatat ut esse ipsum id officia ea."
  },
  {
    "id": 4,
    "project_id": 9,
    "user_id": 1,
    "name": "Zadanie4",
    "priority": "wysoki",
    "status": "otwarte",
    "description": "Consequat consectetur nostrud fugiat exercitation quis esse dolore quis anim non officia nisi veniam amet. Sit consequat aute magna adipisicing. Eu qui irure elit mollit in. Anim dolore labore elit elit adipisicing in ad proident occaecat incididunt quis reprehenderit labore amet."
  },
  {
    "id": 5,
    "project_id": 9,
    "user_id": 2,
    "name": "Zadanie5",
    "priority": "niski",
    "status": "w trakcie",
    "description": "Velit irure cupidatat irure velit sunt officia sunt. Sunt duis in sit magna dolore. Labore ipsum eiusmod officia et veniam adipisicing ad nulla id voluptate cupidatat exercitation ea ex. Sint non consequat amet labore sint deserunt."
  },
  {
    "id": 6,
    "project_id": 8,
    "user_id": 2,
    "name": "Zadanie6",
    "priority": "wysoki",
    "status": "otwarte",
    "description": "Est cupidatat sint tempor ipsum ex laborum qui labore laboris aute deserunt. Elit Lorem pariatur nulla consequat excepteur aliquip aliquip. Proident laborum sit cillum cillum. Laboris enim magna labore aliquip reprehenderit voluptate cupidatat cillum."
  },
  {
    "id": 7,
    "project_id": 7,
    "user_id": 4,
    "name": "Zadanie7",
    "priority": "wysoki",
    "status": "w trakcie",
    "description": "Adipisicing laboris sit dolore velit tempor voluptate velit aliqua sint. Laboris laboris mollit deserunt velit cillum enim in mollit duis irure et est laborum. Ut enim enim qui aute exercitation non ullamco."
  },
  {
    "id": 8,
    "project_id": 17,
    "user_id": 3,
    "name": "Zadanie8",
    "priority": "niski",
    "status": "otwarte",
    "description": "Irure consectetur enim ea est occaecat. Officia sint quis velit sint laboris sit Lorem culpa amet deserunt labore nostrud. Fugiat cillum labore qui enim commodo fugiat Lorem dolore minim et. Incididunt elit laborum reprehenderit enim do eiud deserunt pariatur."
  },
  {
    "id": 9,
    "project_id": 19,
    "user_id": 2,
    "name": "Zadanie9",
    "priority": "wysoki",
    "status": "otwarte",
    "description": "Occaecat do esse esse esse in minim. Do aliquip ad et Lorem. Minim eu ipsum quis fugiat proident aliqua quis officia. Proident eu minim mollit sunt culpa sunt culpa culpa ipsum. Aute nostrud anim adipisicing aute ullamco dolor adipisicing esse voluptate officia minim ex elit. Aute sit aliqua mollit sit."
  },
  {
    "id": 10,
    "project_id": 19,
    "user_id": 4,
    "name": "Zadanie10",
    "priority": "wysoki",
    "status": "w trakcie",
    "description": "Aute cillum est commodo eu proident ut est officia aliqua consequat irure nisi ullamco ut. Aliqua cupidatat incididunt nulla reprehenderit duis anim et enim mollit. Esse et consequat velit esse ullamco sunt dolore exercitation dolor non eiusmod elit aliqua."
  },
  {
    "id": 11,
    "project_id": 17,
    "user_id": 1,
    "name": "Zadanie11",
    "priority": "wysoki",
    "status": "otwarte",
    "description": "Eu est dolor duis ad reprehenderit. Ex fugiat amet mollit magna aliquip est laboris voluptate sit non. Mollit anim ad ullamco laboris velit veniam. Consectetur enim ut reprehenderit cupidatat laboris Lorem occaecat magna laborum enim in fugiat. Commodo laboris ad pariatur adipisicing voluptate."
  },
  {
    "id": 12,
    "project_id": 16,
    "user_id": 3,
    "name": "Zadanie12",
    "priority": "niski",
    "status": "otwarte",
    "description": "In esse ea irure proident dolore do eiusmod Lorem do est irure do aliquip. Consectetur est fugiat anim cupidatat."
  },
  {
    "id": 13,
    "project_id": 1,
    "user_id": 4,
    "name": "Zadanie13",
    "priority": "niski",
    "status": "zakonczone",
    "description": "Voluptate qui qui eiusmod eu irure veniam veniam veniam commodo nostrud non. Incididunt laboris officia consequat laboris dolore sit qui irure. Et proident ullamco esse sint veniam. Labore est incididunt est do consectetur."
  },
  {
    "id": 14,
    "project_id": 16,
    "user_id": 3,
    "name": "Zadanie14",
    "priority": "niski",
    "status": "otwarte",
    "description": "Pariatur commodo aliqua id eu ex qui ullamco consequat fugiat magna ullamco minim. Pariatur in ut ut minim dolore eu incididunt aute ad."
  },
  {
    "id": 15,
    "project_id": 5,
    "user_id": 3,
    "name": "Zadanie15",
    "priority": "normalny",
    "status": "otwarte",
    "description": "Occaecat enim eu dolor tempor deserunt. Proident excepteu fugiat exercitation magna fugiat. Exercitation. Non exercitation eu dolore Lorem esse anim laboris duis. Eu deserunt exercitation consequat esse mollit velit. Cillum id do aliquip voluptate deserunt sint proident incididunt cupidatat pariatur id sit incididunt nulla."
  },
  {
    "id": 16,
    "project_id": 15,
    "user_id": 1,
    "name": "Zadanie16",
    "priority": "wysoki",
    "status": "w trakcie",
    "description": "Excepteur culpa voluptate fugiat aute fugiat duis Lorem pariatur ex ex laboris eu magna pariatur. Aute in ut sint eiusmod incididunt quis. Cillum labore exercitation Lorem ad veniam dolore proident. Quis enim aliquip deserunt ex pariatur."
  },
  {
    "id": 17,
    "project_id": 16,
    "user_id": 1,
    "name": "Zadanie17",
    "priority": "wysoki",
    "status": "w trakcie",
    "description": "Lorem amet ut in ullamco. Ut aliqua sit consequat id esse enim consectetur ea mollit culpa. Irure do irure incididunt mollit enim commodo culpa sit duis nostrud nulla tempor sit. Enim ea Lorem tempor ut."
  },
  {
    "id": 18,
    "project_id": 3,
    "user_id": 4,
    "name": "Zadanie18",
    "priority": "niski",
    "status": "otwarte",
    "description": "Sint aliquip velit occaecat consectetur duis proident et dolore fugiat est reprehenderit aliquip. Laboris cupidatat nulla consectetur occaecat. Consequat minim ad dolor ipsum proident est occaecat tempor mollit anim velit aliqua ipsum. Incididunt dolor exercitation commodo est do culpa cupidatat."
  },
  {
    "id": 19,
    "project_id": 15,
    "user_id": 5,
    "name": "Zadanie19",
    "priority": "normalny",
    "status": "w trakcie",
    "description": "Esse cillum non id excepteur et minim dolor irure labore laboris nisi consectetur. Nulla incididunt non duis minim pariatur laborum ex et. Consequat sit non laboris tempor qui id. Ullamco aute irure adipisicing adipisicing aliqua."
  },
  {
    "id": 20,
    "project_id": 11,
    "user_id": 1,
    "name": "Zadanie20",
    "priority": "wysoki",
    "status": "w trakcie",
    "description": "Incididunt commodo in duis quis aliquip cillum. Quis sit ad ipsum mollit culpa qui cillum ipsum. Esse aute commodo consequat et officia incididunt cillum sint. Cillum irure ipsum id laboris. Lorem culpa duis incididunt cillum ipsum Lorem non consectetur aliqua ad dolor mollit cillum."
  },
  {
    "id": 21,
    "project_id": 17,
    "user_id": 2,
    "name": "Zadanie21",
    "priority": "wysoki",
    "status": "otwarte",
    "description": "Dolor aute reprehenderit nulla sit amet voluptate sint. Sunt Lorem esse Lorem eu elit eu. Proident qui tempor Lorem nulla. Id labore cupidatat fugiat velit dolore ut. Adipisicing enim adipisicing laborum nostrud cupidatat sint reprehenderit consequat. Labore ut cillum amet minim aute. Duis sunt fugiat aliqua pariatur dolore est qui sint minim."
  },
  {
    "id": 22,
    "project_id": 5,
    "user_id": 5,
    "name": "Zadanie22",
    "priority": "normalny",
    "status": "w trakcie",
    "description": "Exercitation aute non nostrud cillum id ullamco ea. Reprehenderit non magna eiusmod enim quis non mollit cillum ea consequat dolor pariatur minim. Dolore ullamco irure culpa nulla. Eiusmod consectetur eiusmod cupidatat qui nostrud in amet."
  },
  {
    "id": 23,
    "project_id": 5,
    "user_id": 2,
    "name": "Zadanie23",
    "priority": "niski",
    "status": "w trakcie",
    "description": "Aliqua nostrud occaecat irure exercitation laboris anim do esse sit mollit aute. Do ad occaecat consequat non pariatur minim id esse commodo sunt. Tempor proident tempor irure adipisicing adipisicing. Qui et sunt veniam mollit ea deserunt ut pariatur. Aute officia occaecat est veniam dolore eu do velit et mollit aute."
  },
  {
    "id": 24,
    "project_id": 15,
    "user_id": 3,
    "name": "Zadanie24",
    "priority": "normalny",
    "status": "w trakcie",
    "description": "Fugiat dolore ex sunt minim sint officia. Officia dolor occaecat duis ut officia laboris labore eiusmod culpa ea adipisicing. Commodo dolore aliquip nulla exercitation minim. Anim esse adipisicing excepteur ex."
  },
  {
    "id": 25,
    "project_id": 3,
    "user_id": 5,
    "name": "Zadanie25",
    "priority": "niski",
    "status": "w trakcie",
    "description": "Nisi culpa commodo labore enim nulla non. Ut in est anim culpa. Dolor commodo deserunt velit ullamco in pariatur amet elit ex ad. Nulla do cillum ullamco voluptate."
  },
  {
    "id": 26,
    "project_id": 9,
    "user_id": 4,
    "name": "Zadanie26",
    "priority": "normalny",
    "status": "zakonczone",
    "description": "Occaecat tempor consectetur Lorem nulla enim veniam anim consectetur dolore commodo do. In sunt duis est exercitation. Eu do fugiat est dolore exercitation veniam ad culpa aliqua et exercitation culpa. Qui ipsum irure mollit laborum id cupidatat ea labore ullamco ex amet ipsum do voluptate."
  },
  {
    "id": 27,
    "project_id": 15,
    "user_id": 5,
    "name": "Zadanie27",
    "priority": "wysoki",
    "status": "w trakcie",
    "description": "Minim consectetur nisi labore esse quis reprehenderit commodo adipisicing culpa labore magna ipsum laborum. Veniam voluptate laborum aliquip aliquip in et cillum amet esse consequat nostrud. Aliquip eu ut eiusmod ipsum ea esse veniam deserunt aliquip mollit veniam dolore occaecat."
  },
  {
    "id": 28,
    "project_id": 17,
    "user_id": 3,
    "name": "Zadanie28",
    "priority": "wysoki",
    "status": "zakonczone",
    "description": "Consequat et eiusmod qui aliqua mollit incididunt deserunt elit sint consectetur nulla proident. Sunt adipisicing dolore dolor do in laboris est anim non laborum ea. Ut aliquip quis sunt consequat Lorem cillum elit esse cillum duis sint duis nisi."
  },
  {
    "id": 29,
    "project_id": 17,
    "user_id": 5,
    "name": "Zadanie29",
    "priority": "wysoki",
    "status": "otwarte",
    "description": "Excepteur ullamco laborum voluptate est consequat tempor laborum mollit reprehenderit voluptate non id fugiat eiusmod. Aliqua aute Lorem ullamco incididunt ad eiusmod cupidatat non fugiat occaecat. Nostrud mollit sunt nisi anim et ipsum do mollit sint fugiat nostrud ipsum magna. Ut amet ad nulla et eiusmod reprehenderit labore sit incididunt incididunt."
  },
  {
    "id": 30,
    "project_id": 17,
    "user_id": 5,
    "name": "Zadanie30",
    "priority": "wysoki",
    "status": "otwarte",
    "description": "Pariatur laboris irure sunt labore velit tempor Lorem qui. Adipisicing voluptate nulla laborum reprehenderit nulla ipsum. Aute ad aliqua exercitation sunt deserunt magna consequat. Voluptate et excepteur laboris mollit exercitation Lorem ut do non est tempor. Sit ad velit excepteur excepteur occaecat."
  },
  {
    "id": 31,
    "project_id": 17,
    "user_id": 2,
    "name": "Zadanie31",
    "priority": "normalny",
    "status": "otwarte",
    "description": "Velit consectetur pariatur sint id esse id ullamco. Tempor veniam aliquip consequat irure occaecat tempor velit occaecat aute consectetur sit. Nulla nisi nulla anim culpa officia officia eu consectetur adipisicing reprehenderit reprehenderit exercitation ullamco adipisicing."
  },
  {
    "id": 32,
    "project_id": 6,
    "user_id": 1,
    "name": "Zadanie32",
    "priority": "normalny",
    "status": "w trakcie",
    "description": "Aliquip fugiat velit amet mollit do veniam. Irure quis anim mollit est et elit reprehenderit ea nulla deserunt. Non laborum voluptate voluptate sunt adipisicing non adipisicing et magna deserunt non voluptate. Laboris enim velit consectetur Lorem ullamco elit pariatur officia."
  },
  {
    "id": 33,
    "project_id": 2,
    "user_id": 3,
    "name": "Zadanie33",
    "priority": "normalny",
    "status": "zakonczone",
    "description": "Nostrud anim cillum laborum culpa. Ex in ullamco quis occaecat quis. Exercitation irure ad enim tempor nostrud culpa laboris laboris exercitation in exercitation magna esse. Dolor aute dolor et incididunt qui velit duis qui excepteur adipisicing esse irure ea."
  },
  {
    "id": 34,
    "project_id": 11,
    "user_id": 1,
    "name": "Zadanie34",
    "priority": "wysoki",
    "status": "w trakcie",
    "description": "Nostrud non magna reprehenderit quis sint voluptate elit exercitation velit anim. Ullamco ex minim consectetur enim cupidatat nisi nulla fugiat voluptate minim ipsum non."
  },
  {
    "id": 35,
    "project_id": 16,
    "user_id": 5,
    "name": "Zadanie35",
    "priority": "normalny",
    "status": "otwarte",
    "description": "Ullamco anim labore culpa nisi laboris mollit ipsum minim labore id. Reprehenderit nostrud ea officia elit eiusmod. Esse incididunt consectetur mollit quis quis in cupidatat eiusmod occaecat ad laborum culpa."
  },
  {
    "id": 36,
    "project_id": 4,
    "user_id": 1,
    "name": "Zadanie36",
    "priority": "wysoki",
    "status": "otwarte",
    "description": "Mollit nostrud est sint mollit dolor sit cupidatat ad proident. Elit nostrud amet enim aute commodo irure nulla minim ad labore veniam ea occaecat.Officia aliqua commodo non aliquip anim velit nulla tempor amet adipisicing consectetur ullamco. Ullamco minim ullamco do ullamco veniam minim proident."
  },
  {
    "id": 37,
    "project_id": 9,
    "user_id": 2,
    "name": "Zadanie37",
    "priority": "niski",
    "status": "w trakcie",
    "description": "Nulla magna excepteur duis in fugiat sit velit ad magna anim occaecat Lorem. Sint velit proident do sit Lorem do. Reprehenderit minim labore occaecat do et laboris labore labore. Eu laboris aliqua esse pariatur labore do proident excepteur eiusmod aliquip labore adipisicing aliquip exercitation."
  },
  {
    "id": 38,
    "project_id": 6,
    "user_id": 2,
    "name": "Zadanie38",
    "priority": "wysoki",
    "status": "w trakcie",
    "description": "Non cupidatat ad deserunt laborum ipsum voluptate ut magna cillum adipisicing aliqua dolore culpa nostrud. Est esse fugiat laboris incididunt incididunt duis Lorem laborum id minim. Dolor nisi in quis tempor. Qui dolore exercitation culpa reprehenderit et."
  },
  {
    "id": 39,
    "project_id": 8,
    "user_id": 3,
    "name": "Zadanie39",
    "priority": "wysoki",
    "status": "zakonczone",
    "description": "Cupidatat occaecat nulla ut commodo enim ex. Deserunt veniam nisi proident sit aute aliquip. Labore in officia ut ea cupidatat minim occaecat laborum aute dolore consectetur culpa. Lorem id non officia consequat officia cupidatat duis tempor amet. Consequat et irure ad cupidatat nostrud ipsum fugiat."
  },
  {
    "id": 40,
    "project_id": 10,
    "user_id": 5,
    "name": "Zadanie40",
    "priority": "normalny",
    "status": "otwarte",
    "description": "Eiusmod excepteur culpa incididunt enim sunt. Culpa deserunt sint ut sunt. Est irure incididunt fugiat dolore quis occaecat id proident ut. Nisi cupidatat consequat officia veniam veniam. Occaecat pariatur consequat ad anim mollit Lorem tempor velit ad sint. Quis amet et voluptate esse. Aliqua reprehenderit magna laborum adipisicing est occaecat culpa quis ea."
  },
  {
    "id": 41,
    "project_id": 20,
    "user_id": 3,
    "name": "Zadanie41",
    "priority": "normalny",
    "status": "otwarte",
    "description": "Enim officia qui duis duis sint laboris magna velit in officia adipisicing veniam dolore ad. Veniam dolor dolor occaecat eu excepteur do velit Lorem occaecat culpa veniam. Elit cupidatat excepteur fugiat nostrud laborum aute. Duis in voluptate quis enim aliqua aute. Ullamco ex deserunt elit mollit."
  },
  {
    "id": 42,
    "project_id": 1,
    "user_id": 3,
    "name": "Zadanie42",
    "priority": "niski",
    "status": "w trakcie",
    "description": "Dolor elit eiusmod dolor veniam veniam ex amet occaecat nostrud quis nisi. Non dolor eu est incididunt amet esse labore ad. Proident sunt cillum nostrud qui irure sunt Lorem pariatur voluptate adipisicing deserunt. Eu pariatur pariatur mollit ipsum cupidatat esse ut et non exercitation laboris laboris commodo. Eu pariatur culpa ut aliquip ut."
  },
  {
    "id": 43,
    "project_id": 3,
    "user_id": 2,
    "name": "Zadanie43",
    "priority": "wysoki",
    "status": "zakonczone",
    "description": "Ex ea incididunt irure culpa Lorem enim cillum cillum quis ut ipsum sit. Consequat duis dolor fugiat ut enim est Lorem est ullamco culpa proident. Sint est mollit nostrud laboris deserunt nostrud do."
  },
  {
    "id": 44,
    "project_id": 4,
    "user_id": 5,
    "name": "Zadanie44",
    "priority": "wysoki",
    "status": "zakonczone",
    "description": "Dolore tempor ipsum ex nostrud et in anim. Pariatur sint labore excepteur amet do aliqua fugiat excepteur adipisicing fugiat laborum cupidatat exercitation. Occaecat commodo pariatur laborum irure dolore. Duis est culpa deserunt laboris velit non voluptate sit consequat laborum proident qui cillum nisi."
  },
  {
    "id": 45,
    "project_id": 11,
    "user_id": 4,
    "name": "Zadanie45",
    "priority": "niski",
    "status": "otwarte",
    "description": "Fugiat pariatur consectetur fugiat fugiat officia. Deserunt labore proident ad laboris ullamco id reprehenderit dolor incididunt proident aute. Labore do et reprehenderit nostrud et veniam ea laborum pariatur."
  },
  {
    "id": 46,
    "project_id": 10,
    "user_id": 4,
    "name": "Zadanie46",
    "priority": "normalny",
    "status": "otwarte",
    "description": "Adipisicing deserunt cillum consectetur do ut enim commodo sunt. Est laboris commodo sit eu ad amet deserunt fugiat cillum non ea aute quis."
  },
  {
    "id": 47,
    "project_id": 5,
    "user_id": 4,
    "name": "Zadanie47",
    "priority": "normalny",
    "status": "zakonczone",
    "description": "Elit velit consequat quis fugiat exercitation. Aliqua ea duis sint tempor mollit reprehenderit mollit do consequat ullamco minim consectetur magna pariatur."
  },
  {
    "id": 48,
    "project_id": 9,
    "user_id": 4,
    "name": "Zadanie48",
    "priority": "niski",
    "status": "otwarte",
    "description": "Et Lorem in enim Lorem cillum irure ex non. Mollit labore deserunt nisi magna duis sit ad ullamco non Lorem. Adipisicing Lorem do nisi ipsum fugiat. Est velit do aute pariatur excepteur cillum. Reprehenderit eiusmod anim elit dolor non ad elit et esse excepteur."
  },
  {
    "id": 49,
    "project_id": 13,
    "user_id": 3,
    "name": "Zadanie49",
    "priority": "niski",
    "status": "zakonczone",
    "description": "Enim aute cillum sunt reprehenderit adipisicing consequat amet reprehenderit mollit non magna nisi anim laborum. Mollit enim sit aliqua quis nisi veniam. Proident sit culpa dolore ex aliquip in est sunt cillum. Elit Lorem anim exercitation tempor sint nostrud pariatur."
  },
  {
    "id": 50,
    "project_id": 9,
    "user_id": 4,
    "name": "Zadanie50",
    "priority": "normalny",
    "status": "zakonczone",
    "description": "Ea ad velit qui officia qui occaecat fugiat occaecat do cillum fugiat sunt. Ut quis anim id tempor non irure minim qui qui velit tempor. Ut minim exercitation consequat amet et dolor."
  },
  {
    "id": 51,
    "project_id": 13,
    "user_id": 2,
    "name": "Zadanie51",
    "priority": "normalny",
    "status": "otwarte",
    "description": "Fugiat excepteur esse ad cupidatat commodo reprehenderit sint dolore enim laboris ullamco sint culpa. Mollit dolore ipsum culpa sunt dolore aute mollit. Amet amet irure id reprehenderit exercitation aliqua reprehenderit sint."
  },
  {
    "id": 52,
    "project_id": 14,
    "user_id": 4,
    "name": "Zadanie52",
    "priority": "wysoki",
    "status": "w trakcie",
    "description": "Excepteur reprehenderit veniam eiusmod ex deserunt ipsum laboris. In sunt aliqua culpa aliqua consectetur laborum eu commodo incididunt sit labore. Consectetur veniam dolore qui id est pariatur."
  },
  {
    "id": 53,
    "project_id": 4,
    "user_id": 5,
    "name": "Zadanie53",
    "priority": "niski",
    "status": "otwarte",
    "description": "Proident laborum labore amet aliqua tempor. Nostrud mollit adipisicing qui aliqua ipsum cupidatat enim minim consectetur. Reprehenderit sunt aute adipisicing esse culpa aliquip do Lorem id aliquip eu sunt id."
  },
  {
    "id": 54,
    "project_id": 14,
    "user_id": 3,
    "name": "Zadanie54",
    "priority": "niski",
    "status": "otwarte",
    "description": "Cupidatat reprehenderit dolor veniam cillum aute veniam. Consequat culpa anim adipisicing eu ullamco amet. Sit ullamco in nostrud sunt nisi voluptate exercitation laborum id nisi ut."
  },
  {
    "id": 55,
    "project_id": 19,
    "user_id": 1,
    "name": "Zadanie55",
    "priority": "niski",
    "status": "otwarte",
    "description": "Adipisicing incididunt occaecat excepteur non dolor sunt sint reprehenderit sunt anim dolor sunt sunt. Sint ea veniam dolor aute Lorem id eiusmod reprehenderit mollit minim."
  },
  {
    "id": 56,
    "project_id": 2,
    "user_id": 1,
    "name": "Zadanie56",
    "priority": "normalny",
    "status": "w trakcie",
    "description": "Anim qui est ut reprehenderit. Laboris sunt cillum mollit magna sunt aliquip sit quis in veniam. Laborum commodo irure in dolor do sit irure cupidatat enim magna excepteur. Sint cillum minim id eu. Cupidatat eiusmod sint nisi et culpa anim tempor voluptate."
  },
  {
    "id": 57,
    "project_id": 7,
    "user_id": 4,
    "name": "Zadanie57",
    "priority": "normalny",
    "status": "w trakcie",
    "description": "Aliquip esse excepteur ad in. Enim officia adipisicing excepteur incididunt non veniam in. Velit consequat adipisicing in ut sunt duis quis amet eu aute. Amet ullamco sunt occaecat sunt occaecat ea id. Dolor et veniam officia officia excepteur."
  },
  {
    "id": 58,
    "project_id": 11,
    "user_id": 1,
    "name": "Zadanie58",
    "priority": "wysoki",
    "status": "otwarte",
    "description": "Eu minim minim commodo Lorem commodo sunt velit. Consectetur ex pariatur laborum adipisicing adipisicing laboris consectetur elit minim quis aliqua tempor ea qui. Laboris anim elit anim quis id ad voluptate eiusmod aliquip et velit sint ad incididunt.."
  },
  {
    "id": 59,
    "project_id": 16,
    "user_id": 5,
    "name": "Zadanie59",
    "priority": "normalny",
    "status": "otwarte",
    "description": "Commodo nostrud eiusmod ex deserunt sint nisi. Incididunt pariatur labore officia amet sit in culpa in sit culpa cillum minim laborum ea."
  },
  {
    "id": 60,
    "project_id": 13,
    "user_id": 1,
    "name": "Zadanie60",
    "priority": "wysoki",
    "status": "otwarte",
    "description": "Ullamco fugiat sit do duis do sunt reprehenderit deserunt ea minim anim sunt exercitation anim. Non quis occaecat esse tempor officia ea excepteur ut aliqua pariatur tempor ex. Minim minim commodo esse cillum eu."
  },
  {
    "id": 61,
    "project_id": 4,
    "user_id": 5,
    "name": "Zadanie61",
    "priority": "normalny",
    "status": "zakonczone",
    "description": "Labore eiusmod minim ut velit labore minim non eu qui mollit. Dolore veniam anim adipisicing Lorem voluptate adipisicing esse eiusmod enim ipsum dolor ipsum."
  },
  {
    "id": 62,
    "project_id": 11,
    "user_id": 5,
    "name": "Zadanie62",
    "priority": "wysoki",
    "status": "w trakcie",
    "description": "Qui irure nulla deserunt cupidatat non. Laborum duis quis esse ex culpa ea in in fugiat adipisicing. Esse proident velit ipsum voluptate anim do eu adipisicing tempor tempor reprehenderit occaecat dolor minim."
  },
  {
    "id": 63,
    "project_id": 3,
    "user_id": 5,
    "name": "Zadanie63",
    "priority": "normalny",
    "status": "zakonczone",
    "description": "Proident adipisicing dolore ea enim amet in elit mollit enim ipsum sit eiusmod laboris irure. Dolor id Lorem id amet nulla id nostrud eiusmod ea reprehenderit velit fugiat est ea. Eu est ex dolor fugiat consectetur amet."
  },
  {
    "id": 64,
    "project_id": 4,
    "user_id": 2,
    "name": "Zadanie64",
    "priority": "wysoki",
    "status": "w trakcie",
    "description": "Incididunt laborum quis quis adipisicing in. Officia et eiusmod do occaecat ullamco reprehenderit pariatur ut proident irure aute reprehenderit. Consequat quis consectetur commodo aliqua fugiat ut ullamco. Proident eu sit quis non."
  },
  {
    "id": 65,
    "project_id": 15,
    "user_id": 2,
    "name": "Zadanie65",
    "priority": "normalny",
    "status": "otwarte",
    "description": "Deserunt eu enim exercitation cillum do fugiat. Velit mollit elit non reprehenderit. Consectetur commodo elit sunt minim consectetur magna deserunt amet duis non velit. Officia non quis eiusmod aute nisi adipisicing proident mollit. Enim consectetur consectetur cupidatat ea."
  },
  {
    "id": 66,
    "project_id": 6,
    "user_id": 2,
    "name": "Zadanie66",
    "priority": "wysoki",
    "status": "w trakcie",
    "description": "Laborum voluptate velit ad ea veniam dolore ullamco nulla commodo veniam consectetur. Occaecat incididunt pariatur pariatur quis. Nostrud ipsum elit magna adipisicing deserunt laborum cupidatat pariatur.."
  },
  {
    "id": 67,
    "project_id": 6,
    "user_id": 2,
    "name": "Zadanie67",
    "priority": "niski",
    "status": "otwarte",
    "description": "Sint magna velit veniam mollit qui nostrud ut sunt duis est qui consequat id. Ad aute aliqua exercitation aute et excepteur culpa dolor id ut qui exercitation. Amet fugiat aute aliqua proident nisi culpa enim deserunt aliqua velit ex sunt id."
  },
  {
    "id": 68,
    "project_id": 9,
    "user_id": 4,
    "name": "Zadanie68",
    "priority": "niski",
    "status": "otwarte",
    "description": "Laborum excepteur aliqua elit non eiusmod exercitation do commodo Lorem. Eiusmod minim exercitation nostrud ut. Voluptate occaecat laborum excepteur do est nostrud consequat cillum Lorem ea. Cupidatat sit proident officia fugiat tempor commodo veniam."
  },
  {
    "id": 69,
    "project_id": 6,
    "user_id": 2,
    "name": "Zadanie69",
    "priority": "niski",
    "status": "zakonczone",
    "description": "Do ad nostrud irure magna amet. Labore ad laborum nulla dolore consequat aute laboris velit et do culpa nulla ullamco non. Laboris et irure in pariatur ipsum aliquip nulla Lorem ad reprehenderit."
  },
  {
    "id": 70,
    "project_id": 12,
    "user_id": 4,
    "name": "Zadanie70",
    "priority": "wysoki",
    "status": "otwarte",
    "description": "Qui quis ipsum nulla officia fugiat amet est eu exercitation ullamco magna in dolore voluptate. Magna pariatur do cupidatat consectetur irure laboris nisi qui ipsum aliqua dolor est culpa."
  },
  {
    "id": 71,
    "project_id": 18,
    "user_id": 4,
    "name": "Zadanie71",
    "priority": "niski",
    "status": "w trakcie",
    "description": "Culpa ipsum sint dolor eiusmod et nostrud amet ut in do quis id nulla minim. Ullamco nisi elit minim ullamco tempor non officia. Tempor culpa eu occaecat excepteur velit Lorem et elit consequat officia voluptate anim."
  },
  {
    "id": 72,
    "project_id": 13,
    "user_id": 5,
    "name": "Zadanie72",
    "priority": "normalny",
    "status": "zakonczone",
    "description": "Id dolore enim velit anim dolore esse irure do Lorem. Veniam do sit culpa Lorem. Est ullamco occaecat ipsum non aute anim voluptate. Exercitation eiusmod in eu eu irure nostrud aliquip aliqua aliquip. Cillum nostrud nulla dolore id magna commodo nulla anim magna incididunt tempor veniam nostrud."
  },
  {
    "id": 73,
    "project_id": 1,
    "user_id": 1,
    "name": "Zadanie73",
    "priority": "normalny",
    "status": "w trakcie",
    "description": "Quis exercitation aliquip laboris ullamco in dolore ut laboris qui. Quis minim cupidatat fugiat sunt ullamco esse mollit eu ullamco do ullamco qui enim ipsum. Consectetur sunt aute consequat voluptate nulla ex consectetur laborum officia."
  },
  {
    "id": 74,
    "project_id": 6,
    "user_id": 1,
    "name": "Zadanie74",
    "priority": "wysoki",
    "status": "zakonczone",
    "description": "Velit excepteur Lorem officia ipsum. Cillum dolore voluptate irure ipsum occaecat eu culpa. Officia eiusmod aliqua Lorem cillum officia proident veniam ipsum sunt. Cillum consequat eu minim magna aliquip magna exercitation commodo."
  },
  {
    "id": 75,
    "project_id": 10,
    "user_id": 2,
    "name": "Zadanie75",
    "priority": "normalny",
    "status": "zakonczone",
    "description": "Tempor esse velit ullamco voluptate nostrud ea sint excepteur. Dolor non laboris cillum adipisicing proident magna dolore ullamco cupidatat sunt tempor voluptate eu."
  },
  {
    "id": 76,
    "project_id": 5,
    "user_id": 1,
    "name": "Zadanie76",
    "priority": "wysoki",
    "status": "otwarte",
    "description": "Sint elit consequat commodo duis ut voluptate fugiat. Duis pariatur Lorem adipisicing eu ex duis. Ullamco commodo dolore deserunt ullamco officia ullamco nulla est enim anim."
  },
  {
    "id": 77,
    "project_id": 5,
    "user_id": 5,
    "name": "Zadanie77",
    "priority": "normalny",
    "status": "otwarte",
    "description": "Pariatur Lorem ut minim magna sint eu laborum nisi velit sit. Id occaecat nostrud ut dolore. Consequat laborum sunt veniam ut pariatur id mollit do reprehenderit labore esse."
  },
  {
    "id": 78,
    "project_id": 17,
    "user_id": 1,
    "name": "Zadanie78",
    "priority": "wysoki",
    "status": "w trakcie",
    "description": "Aute dolor sint enim nostrud. Nostrud aliquip veniam esse consectetur laboris do id duis voluptate. Pariatur ipsum ad et in elit qui ea mollit consectetur enim sunt et id. Laborum reprehenderit veniam et mollit Lorem nisi veniam officia quis."
  },
  {
    "id": 79,
    "project_id": 3,
    "user_id": 1,
    "name": "Zadanie79",
    "priority": "normalny",
    "status": "zakonczone",
    "description": "Aliqua veniam laborum ea quis. Consequat culpa mollit enim aute pariatur est dolor non proident. Ipsum aute nisi amet tempor. Anim exercitation proident exercitation aute. Incididunt dolore ut id sint irure quis eiusmod proident aliqua enim sit ad tempor officia."
  },
  {
    "id": 80,
    "project_id": 13,
    "user_id": 4,
    "name": "Zadanie80",
    "priority": "niski",
    "status": "otwarte",
    "description": "Est tempor exercitation labore minim enim irure ex Lorem. Voluptate cillum magna sit anim cupidatat ad ullamco in duis veniam. Qui ad anim sunt ut occaecat consequat Lorem in. Aute laboris qui ex non excepteur ullamco ex."
  },
  {
    "id": 81,
    "project_id": 7,
    "user_id": 5,
    "name": "Zadanie81",
    "priority": "niski",
    "status": "w trakcie",
    "description": "Aliqua pariatur laborum dolore commodo et consequat. Ad et sunt nulla deserunt aute mollit aute tempor magna amet. Non pariatur velit elit minim nisi adipisicing anim irure enim veniam. Ipsum reprehenderit ut cillum velit ullamco cupidatat consectetur Lorem. Magna amet nisi adipisicing ullamco."
  },
  {
    "id": 82,
    "project_id": 3,
    "user_id": 1,
    "name": "Zadanie82",
    "priority": "normalny",
    "status": "zakonczone",
    "description": "Reprehenderit ut qui occaecat aliquip in nulla aute ad consequat do ullamco reprehenderit consequat dolor. Ad elit eiusmod sit veniam. Aliquip aliquip fugiat nulla culpa sit mollit excepteur. Culpa reprehenderit irure labore in fugiat."
  },
  {
    "id": 83,
    "project_id": 17,
    "user_id": 4,
    "name": "Zadanie83",
    "priority": "wysoki",
    "status": "zakonczone",
    "description": "Magna eu laboris reprehenderit ea irure laborum officia. Minim id aliquip pariatur commodo consequat consectetur eiusmod aliqua duis enim laboris esse. Lorem ea ullamco ex aute qui. Cupidatat ullamco amet et anim qui consectetur minim culpa ipsum amet minim."
  },
  {
    "id": 84,
    "project_id": 1,
    "user_id": 3,
    "name": "Zadanie84",
    "priority": "normalny",
    "status": "w trakcie",
    "description": "Voluptate in cupidatat eu magna et esse ipsum ipsum cupidatat veniam ullamco. Irure mollit dolore in magna ut ad dolore id sint ullamco in ad. Sunt esse nostrud excepteur enim ut nostrud. Pariatur velit consequat cupidatat proident et ullamco magna ad sit fugiat id commodo."
  },
  {
    "id": 85,
    "project_id": 8,
    "user_id": 2,
    "name": "Zadanie85",
    "priority": "wysoki",
    "status": "otwarte",
    "description": "Et magna incididunt ea labore adipisicing ipsum do ipsum ut irure tempor deserunt. Laborum dolore et fugiat adipisicing nulla velit officia deserunt cupidatat occaecat."
  },
  {
    "id": 86,
    "project_id": 17,
    "user_id": 5,
    "name": "Zadanie86",
    "priority": "normalny",
    "status": "w trakcie",
    "description": "Ut ex amet aute est. Proident pariatur consequat reprehenderit sunt mollit. Quis ad magna magna veniam id laboris. Irure dolor laborum Lorem ea occaecat qui magna. Esse eiusmod ipsum proident fugiat. Et magna et eiusmod culpa culpa in amet pariatur minim."
  },
  {
    "id": 87,
    "project_id": 18,
    "user_id": 5,
    "name": "Zadanie87",
    "priority": "wysoki",
    "status": "otwarte",
    "description": "Labore culpa fugiat labore laborum magna deserunt sint Lorem magna ea. Eu aute minim occaecat commodo et ad. Aute laborum tempor amet nulla."
  },
  {
    "id": 88,
    "project_id": 15,
    "user_id": 5,
    "name": "Zadanie88",
    "priority": "normalny",
    "status": "w trakcie",
    "description": "Sint laborum cillum mollit nostrud dolor proident laborum aute ea dolore. Tempor commodo non sunt nulla non occaecat. Minim exercitation aliquip laboris deserunt nisi culpa qui."
  },
  {
    "id": 89,
    "project_id": 10,
    "user_id": 1,
    "name": "Zadanie89",
    "priority": "normalny",
    "status": "zakonczone",
    "description": "Eiusmod voluptate minim magna occaecat aliqua mollit labore. Id deserunt in exercitation ad id mollit. Sit ullamco non tempor proident consequat irure et tempor ullamco dolore ex."
  },
  {
    "id": 90,
    "project_id": 19,
    "user_id": 3,
    "name": "Zadanie90",
    "priority": "niski",
    "status": "w trakcie",
    "description": "Ad esse Lorem deserunt cillum anim consequat elit et ipsum. Do sit cupidatat ipsum magna eiusmod fugiat reprehenderit est anim sit irure. Excepteur ipsum reprehenderit et quis aliqua sit proident do non."
  },
  {
    "id": 91,
    "project_id": 16,
    "user_id": 4,
    "name": "Zadanie91",
    "priority": "niski",
    "status": "w trakcie",
    "description": "Officia non magna sunt ad elit dolor eu commodo labore labore irure tempor incididunt. Aliqua anim ea ex elit excepteur. Reprehenderit esse qui deserunt amet voluptate enim elit."
  },
  {
    "id": 92,
    "project_id": 19,
    "user_id": 1,
    "name": "Zadanie92",
    "priority": "wysoki",
    "status": "w trakcie",
    "description": "Culpa cillum minim proident laborum id esse excepteur. Aute aliquip amet est veniam elit. Elit enim labore Lorem aute ad. Labore officia ea duis voluptate. Enim culpa enim anim ipsum aliqua Lorem eu ea ipsum minim deserunt exercitation cupidatat."
  },
  {
    "id": 93,
    "project_id": 6,
    "user_id": 5,
    "name": "Zadanie93",
    "priority": "normalny",
    "status": "otwarte",
    "description": "Fugiat esse eiusmod id culpa. Laboris consequat nisi aliquip voluptate in ex. In nostrud pariatur quis incididunt occaecat exercitation minim eiusmod adipisicing mollit consequat et. Nulla nostrud ad sit excepteur velit veniam incididunt quis ex ullamco occaecat exercitation."
  },
  {
    "id": 94,
    "project_id": 12,
    "user_id": 2,
    "name": "Zadanie94",
    "priority": "wysoki",
    "status": "zakonczone",
    "description": "Exercitation duis qui ea sunt voluptate Lorem in ex. Aliqua labore laborum aute irure laboris veniam culpa deserunt enim cillum do. Elit Lorem deserunt do excepteur non incididunt elit consequat deserunt duis elit laborum. Et quis ut nostrud eiusmod sint."
  },
  {
    "id": 95,
    "project_id": 19,
    "user_id": 4,
    "name": "Zadanie95",
    "priority": "normalny",
    "status": "w trakcie",
    "description": "Pariatur commodo occaecat dolor esse est enim duis id enim. Lorem irure nisi cillum Lorem culpa sunt ea est velit officia incididunt. Est adipisicing nulla magna incididunt ipsum ipsum est nulla adipisicing laborum. Labore exercitation id laborum et duis sunt labore."
  },
  {
    "id": 96,
    "project_id": 16,
    "user_id": 4,
    "name": "Zadanie96",
    "priority": "niski",
    "status": "otwarte",
    "description": "Laborum aute officia cillum proident tempor. Quis velit mollit veniam labore ut non dolor amet occaecat ex voluptate exercitation eiusmod esse."
  },
  {
    "id": 97,
    "project_id": 10,
    "user_id": 4,
    "name": "Zadanie97",
    "priority": "niski",
    "status": "w trakcie",
    "description": "Nisi amet nulla laboris dolor in nostrud incididunt velit ut ex anim sint. Labore cillum duis qui laborum minim non incididunt aute consectetur sint ea do aute. Anim tempor amet incididunt in incididunt ipsum elit id veniam laborum occaecat magna."
  },
  {
    "id": 98,
    "project_id": 8,
    "user_id": 1,
    "name": "Zadanie98",
    "priority": "wysoki",
    "status": "w trakcie",
    "description": "Aute ad aliquip ut ex elit ad et id laborum esse tempor id elit. Enim culpa eiusmod reprehenderit enim consequat ea deserunt sint ad. Quis laboris et do officia anim deserunt ipsum eiusmod voluptate magna cupidatat duis."
  },
  {
    "id": 99,
    "project_id": 13,
    "user_id": 4,
    "name": "Zadanie99",
    "priority": "wysoki",
    "status": "otwarte",
    "description": "Quis mollit enim magna irure enim velit elit commodo enim non deserunt officia qui. Duis non excepteur occaecat ex dolore eu deserunt consequat nisi sit ut sint proident. Velit ut sunt ad aliqua eu proident cillum proident ut in."
  }
]
